…
```         
## [1] 520606      6
```

``` r
## Identify categorical variables ----
# Ensure the country is recorded as categorical data
itemslist_removed_vars_obs %>% mutate(Country = as.factor(Country))
```

```         
## # A tibble: 520,606 × 6
##    BillNo Itemname                    Quantity Date                Price Country
##     <dbl> <chr>                          <dbl> <dttm>              <dbl> <fct>  
##  1 536365 WHITE HANGING HEART T-LIGH…        6 2010-12-01 08:26:00  2.55 United…
##  2 536365 WHITE METAL LANTERN                6 2010-12-01 08:26:00  3.39 United…
##  3 536365 CREAM CUPID HEARTS COAT HA…        8 2010-12-01 08:26:00  2.75 United…
##  4 536365 KNITTED UNION FLAG HOT WAT…        6 2010-12-01 08:26:00  3.39 United…
##  5 536365 RED WOOLLY HOTTIE WHITE HE…        6 2010-12-01 08:26:00  3.39 United…
##  6 536365 SET 7 BABUSHKA NESTING BOX…        2 2010-12-01 08:26:00  7.65 United…
##  7 536365 GLASS STAR FROSTED T-LIGHT…        6 2010-12-01 08:26:00  4.25 United…
##  8 536366 HAND WARMER UNION JACK             6 2010-12-01 08:28:00  1.85 United…
##  9 536366 HAND WARMER RED POLKA DOT          6 2010-12-01 08:28:00  1.85 United…
## 10 536367 ASSORTED COLOUR BIRD ORNAM…       32 2010-12-01 08:34:00  1.69 United…
## # ℹ 520,596 more rows
```

``` r
# Also ensure that the Itemname is recorded
# as categorical data
itemslist_removed_vars_obs %>% mutate(Itemname = as.factor(Itemname))
```

```         
## # A tibble: 520,606 × 6
##    BillNo Itemname                    Quantity Date                Price Country
##     <dbl> <fct>                          <dbl> <dttm>              <dbl> <chr>  
##  1 536365 WHITE HANGING HEART T-LIGH…        6 2010-12-01 08:26:00  2.55 United…
##  2 536365 WHITE METAL LANTERN                6 2010-12-01 08:26:00  3.39 United…
##  3 536365 CREAM CUPID HEARTS COAT HA…        8 2010-12-01 08:26:00  2.75 United…
##  4 536365 KNITTED UNION FLAG HOT WAT…        6 2010-12-01 08:26:00  3.39 United…
##  5 536365 RED WOOLLY HOTTIE WHITE HE…        6 2010-12-01 08:26:00  3.39 United…
##  6 536365 SET 7 BABUSHKA NESTING BOX…        2 2010-12-01 08:26:00  7.65 United…
##  7 536365 GLASS STAR FROSTED T-LIGHT…        6 2010-12-01 08:26:00  4.25 United…
##  8 536366 HAND WARMER UNION JACK             6 2010-12-01 08:28:00  1.85 United…
##  9 536366 HAND WARMER RED POLKA DOT          6 2010-12-01 08:28:00  1.85 United…
## 10 536367 ASSORTED COLOUR BIRD ORNAM…       32 2010-12-01 08:34:00  1.69 United…
## # ℹ 520,596 more rows
```
…
